@startuml

title __MODEL's Class Diagram__\n

  namespace fr.cnam.foad.nfa035.badges.wallet.model {
    class fr.cnam.foad.nfa035.badges.wallet.model.DigitalBadge {
        - badge : File
        + DigitalBadge()
        + equals()
        + getBadge()
        + getMetadata()
        + hashCode()
        + setBadge()
        + setMetadata()
        + toString()
    }
  }


  namespace fr.cnam.foad.nfa035.badges.wallet.model {
    class fr.cnam.foad.nfa035.badges.wallet.model.DigitalBadgeMetadata {
        - badgeId : int
        - imageSize : long
        - walletPosition : long
        + DigitalBadgeMetadata()
        + equals()
        + getBadgeId()
        + getImageSize()
        + getWalletPosition()
        + hashCode()
        + setBadgeId()
        + setImageSize()
        + setWalletPosition()
        + toString()
    }
  }


  fr.cnam.foad.nfa035.badges.wallet.model.DigitalBadge o-right- fr.cnam.foad.nfa035.badges.wallet.model.DigitalBadgeMetadata : metadata


right footer


PlantUML diagram generated by SketchIt! (https://bitbucket.org/pmesmeur/sketch.it)
For more information about this tool, please contact philippe.mesmeur@gmail.com
endfooter

@enduml
